"Año";"Periodo";"Parámetro";"Porcentaje (%) de respuestas afirmativas"
"2016";"Año";"Chicas";"42,6"
"2016";"Año";"Chicos";"35,9"
;;
;;
"Métrica":"Porcentaje (%) de respuestas afirmativas"
"Fuente":"Unicef"
"Clasificación":""
"Unidad":"Porcentaje (%) de respuestas afirmativas"
"Escala":"Unidades"
"EscalaFactorPotencia10":"0"
"SonDatosNumericos":"True"
;;
;;
"Url":"https://www.epdata.es/chicas-reconocen-haberse-visto-mas-casos-acoso-sexual-chicos/b460c64f-851d-419a-a756-416374e08c59"
"Titulo":"Las chicas reconocen más situaciones de violencia o acoso sexual 'online'"
"Subtitulo":""
